US_Accident_Data_Analysis
…
S1 <- my_data %>% 
  group_by(Wind_Direction) %>%
  summarise(n = n())
S1

## # A tibble: 25 x 2
##    Wind_Direction      n
##    <chr>           <int>
##  1 Calm            79192
##  2 CALM           202870
##  3 E               52435
##  4 East            24064
##  5 ENE             51257
##  6 ESE             51295
##  7 N               53718
##  8 NE              48355
##  9 NNE             46509
## 10 NNW             68014
## # ... with 15 more rows
…
S2 <- my_data %>% 
  group_by(State) %>%
  summarise(n = n())
S2

## # A tibble: 49 x 2
##    State      n
##    <chr>  <int>
##  1 AL      9375
##  2 AR      4373
##  3 AZ     30185
##  4 CA    448833
##  5 CO     19809
##  6 CT     15194
##  7 DC      3788
##  8 DE      2331
##  9 FL    153007
## 10 GA     31111
## # ... with 39 more rows
…
## # A tibble: 6 x 7
##   Severity Year  Month Day   Hour  Wday  Duration
##      <dbl> <chr> <chr> <chr> <chr> <chr>    <dbl>
## 1        3 2016  02    08    00    2          360
## 2        2 2016  02    08    05    2          360
## 3        2 2016  02    08    06    2          360
## 4        2 2016  02    08    06    2          360
## 5        2 2016  02    08    06    2          360
## 6        3 2016  02    08    07    2          360

library(ggplot2)
accidents_happenHour <- accidents_time %>% count(Hour)
accidents_happenHour

## # A tibble: 24 x 2
##    Hour      n
##    <chr> <int>
##  1 00    46125
##  2 01    43434
##  3 02    38801
##  4 03    32175
##  5 04    29478
##  6 05    40105
##  7 06    57859
##  8 07    73938
##  9 08    75802
## 10 09    59744
## # ... with 14 more rows
…
accidents_severity <- accidents_time %>%
    group_by(Hour) %>%
    summarise(mean(Severity))
accidents_severity

## # A tibble: 24 x 2
##    Hour  `mean(Severity)`
##    <chr>            <dbl>
##  1 00                2.26
##  2 01                2.18
##  3 02                2.21
##  4 03                2.27
##  5 04                2.31
##  6 05                2.32
##  7 06                2.27
##  8 07                2.25
##  9 08                2.24
## 10 09                2.27
## # ... with 14 more rows
…
## Loading required package: NLP

## 
## Attaching package: 'NLP'

## The following object is masked from 'package:ggplot2':
## 
##     annotate

accidents_weather <- df %>% count(Weather_Condition)
accidents_weather

## # A tibble: 117 x 2
##    Weather_Condition         n
##    <chr>                 <int>
##  1 Blowing Dust             78
##  2 Blowing Dust / Windy     79
##  3 Blowing Snow            144
##  4 Blowing Snow / Windy     63
##  5 Clear                180223
##  6 Cloudy               161291
##  7 Cloudy / Windy         3300
##  8 Drifting Snow             1
##  9 Drizzle                1023
## 10 Drizzle / Windy           3
## # ... with 107 more rows
…
## `summarise()` has grouped output by 'State'. You can override using the
## `.groups` argument.

test_group

## # A tibble: 343 x 10
## # Groups:   State [49]
##    State  Wday avg_temp avg_hum avg_wind avg_pressure avg_precipitation
##    <chr> <int>    <dbl>   <dbl>    <dbl>        <dbl>             <dbl>
##  1 AL        1     63.3    75.5     62.0         29.7           0.0937 
##  2 AL        2     62.2    69.5     58.8         29.8           0.0127 
##  3 AL        3     60.9    70.4     58.1         29.8           0.00739
##  4 AL        4     64.2    70.5     61.3         29.7           0.00658
##  5 AL        5     64.8    68.5     61.9         29.7           0.00670
##  6 AL        6     64.4    68.9     62.4         29.8           0.00345
##  7 AL        7     61.2    77.5     60.1         29.7           0.00874
##  8 AR        1     54.1    78.1     51.6         29.7           0.0123 
##  9 AR        2     55.2    74.1     52.6         29.8           0.00702
## 10 AR        3     56.2    73.0     54.3         29.8           0.00628
## # ... with 333 more rows, and 3 more variables: avg_distance <dbl>,
## #   avg_sev <dbl>, count <int>
…
